%YAML 1.1
%TAG !u! tag:unity3d.com,2011:
--- !u!74 &7400000
AnimationClip:
  m_ObjectHideFlags: 0
  m_CorrespondingSourceObject: {fileID: 0}
  m_PrefabInstance: {fileID: 0}
  m_PrefabAsset: {fileID: 0}
  m_Name: saute
  serializedVersion: 6
  m_Legacy: 0
  m_Compressed: 0
  m_UseHighQualityCurve: 1
  m_RotationCurves: []
  m_CompressedRotationCurves: []
  m_EulerCurves: []
  m_PositionCurves: []
  m_ScaleCurves: []
  m_FloatCurves: []
  m_PPtrCurves:
  - curve:
    - time: 0
      value: {fileID: 21300000, guid: 2ed56f93cca09c040a2f1d1e17699a23, type: 3}
    - time: 0.083333336
      value: {fileID: 21300000, guid: acf87438ef2fba94092762ad10f17007, type: 3}
    - time: 0.16666667
      value: {fileID: 21300000, guid: 4fda781838d7bb04caf96c0896443a26, type: 3}
    - time: 0.25
      value: {fileID: 21300000, guid: 74fc87a4d662fb04698cc3227fce1291, type: 3}
    - time: 0.33333334
      value: {fileID: 21300000, guid: 0f419710f40ab65458621b5ce9af3ab1, type: 3}
    - time: 0.41666666
      value: {fileID: 21300000, guid: 18c8c7e1ad9e3af45839a173d26de067, type: 3}
    - time: 0.5
      value: {fileID: 21300000, guid: e4bbace5ef9a31b43afaf7a11cb899f9, type: 3}
    - time: 0.5833333
      value: {fileID: 21300000, guid: a1e26d688bb5a0e40abd2d88240bc149, type: 3}
    - time: 0.6666667
      value: {fileID: 21300000, guid: 12ea87e3b5c1c894984332e1f9a093b1, type: 3}
    - time: 0.75
      value: {fileID: 21300000, guid: 7bc72521eed78934d91f4047b189ac6e, type: 3}
    - time: 0.8333333
      value: {fileID: 21300000, guid: 08323a41b523a404885ee514074f6f1c, type: 3}
    - time: 0.9166667
      value: {fileID: 21300000, guid: 74a271b7109a2734f8ce58fecb61a29f, type: 3}
    - time: 1
      value: {fileID: 21300000, guid: 02cf5291fae86a04c9c82910cc3dedc9, type: 3}
    - time: 1.0833334
      value: {fileID: 21300000, guid: 3ce0083728f06214abe90d73c3e05438, type: 3}
    - time: 1.1666666
      value: {fileID: 21300000, guid: 320d49d12ae2a2d47a2aa8458ad784a7, type: 3}
    - time: 1.25
      value: {fileID: 21300000, guid: c884bccbe33e8f84da09a9dcbfd79f23, type: 3}
    - time: 1.3333334
      value: {fileID: 21300000, guid: 06e3ed1b09088ea4dbcbf81d301feb92, type: 3}
    - time: 1.4166666
      value: {fileID: 21300000, guid: 3aba4ff3567786541bd82e89ebe3fbe4, type: 3}
    - time: 1.5
      value: {fileID: 21300000, guid: acc86d97501ba2a47a6925da84650672, type: 3}
    - time: 1.5833334
      value: {fileID: 21300000, guid: 4bd9487563068ab4caebe43d459b9690, type: 3}
    - time: 1.6666666
      value: {fileID: 21300000, guid: d78283f4814abaa4f9ad63e3003fc951, type: 3}
    - time: 1.75
      value: {fileID: 21300000, guid: e893ec20490d5864187b73322ca89934, type: 3}
    - time: 1.8333334
      value: {fileID: 21300000, guid: 2700fff66f758a542a2f0593ba2004f9, type: 3}
    - time: 1.9166666
      value: {fileID: 21300000, guid: d4314c59509e9244a9fb122bc891c073, type: 3}
    - time: 2
      value: {fileID: 21300000, guid: 62757e5ca7f29b24cb68fbff334e33fa, type: 3}
    - time: 2.0833333
      value: {fileID: 21300000, guid: fd731bb3d9114854891859709cb52dad, type: 3}
    - time: 2.1666667
      value: {fileID: 21300000, guid: ccc48944f83bd1d49969261029416d0f, type: 3}
    - time: 2.25
      value: {fileID: 21300000, guid: 52336ad40ac5d4342953c96405b76355, type: 3}
    - time: 2.3333333
      value: {fileID: 21300000, guid: 1318b39ee0ad77f4fa78771b2ccb5098, type: 3}
    - time: 2.4166667
      value: {fileID: 21300000, guid: e34c813f8153ac84caff65ce8863e3ff, type: 3}
    - time: 2.5
      value: {fileID: 21300000, guid: 30df52e686f35794c99c0e95d2240d34, type: 3}
    attribute: m_Sprite
    path: 
    classID: 212
    script: {fileID: 0}
  m_SampleRate: 12
  m_WrapMode: 0
  m_Bounds:
    m_Center: {x: 0, y: 0, z: 0}
    m_Extent: {x: 0, y: 0, z: 0}
  m_ClipBindingConstant:
    genericBindings:
    - serializedVersion: 2
      path: 0
      attribute: 0
      script: {fileID: 0}
      typeID: 212
      customType: 23
      isPPtrCurve: 1
    pptrCurveMapping:
    - {fileID: 21300000, guid: 2ed56f93cca09c040a2f1d1e17699a23, type: 3}
    - {fileID: 21300000, guid: acf87438ef2fba94092762ad10f17007, type: 3}
    - {fileID: 21300000, guid: 4fda781838d7bb04caf96c0896443a26, type: 3}
    - {fileID: 21300000, guid: 74fc87a4d662fb04698cc3227fce1291, type: 3}
    - {fileID: 21300000, guid: 0f419710f40ab65458621b5ce9af3ab1, type: 3}
    - {fileID: 21300000, guid: 18c8c7e1ad9e3af45839a173d26de067, type: 3}
    - {fileID: 21300000, guid: e4bbace5ef9a31b43afaf7a11cb899f9, type: 3}
    - {fileID: 21300000, guid: a1e26d688bb5a0e40abd2d88240bc149, type: 3}
    - {fileID: 21300000, guid: 12ea87e3b5c1c894984332e1f9a093b1, type: 3}
    - {fileID: 21300000, guid: 7bc72521eed78934d91f4047b189ac6e, type: 3}
    - {fileID: 21300000, guid: 08323a41b523a404885ee514074f6f1c, type: 3}
    - {fileID: 21300000, guid: 74a271b7109a2734f8ce58fecb61a29f, type: 3}
    - {fileID: 21300000, guid: 02cf5291fae86a04c9c82910cc3dedc9, type: 3}
    - {fileID: 21300000, guid: 3ce0083728f06214abe90d73c3e05438, type: 3}
    - {fileID: 21300000, guid: 320d49d12ae2a2d47a2aa8458ad784a7, type: 3}
    - {fileID: 21300000, guid: c884bccbe33e8f84da09a9dcbfd79f23, type: 3}
    - {fileID: 21300000, guid: 06e3ed1b09088ea4dbcbf81d301feb92, type: 3}
    - {fileID: 21300000, guid: 3aba4ff3567786541bd82e89ebe3fbe4, type: 3}
    - {fileID: 21300000, guid: acc86d97501ba2a47a6925da84650672, type: 3}
    - {fileID: 21300000, guid: 4bd9487563068ab4caebe43d459b9690, type: 3}
    - {fileID: 21300000, guid: d78283f4814abaa4f9ad63e3003fc951, type: 3}
    - {fileID: 21300000, guid: e893ec20490d5864187b73322ca89934, type: 3}
    - {fileID: 21300000, guid: 2700fff66f758a542a2f0593ba2004f9, type: 3}
    - {fileID: 21300000, guid: d4314c59509e9244a9fb122bc891c073, type: 3}
    - {fileID: 21300000, guid: 62757e5ca7f29b24cb68fbff334e33fa, type: 3}
    - {fileID: 21300000, guid: fd731bb3d9114854891859709cb52dad, type: 3}
    - {fileID: 21300000, guid: ccc48944f83bd1d49969261029416d0f, type: 3}
    - {fileID: 21300000, guid: 52336ad40ac5d4342953c96405b76355, type: 3}
    - {fileID: 21300000, guid: 1318b39ee0ad77f4fa78771b2ccb5098, type: 3}
    - {fileID: 21300000, guid: e34c813f8153ac84caff65ce8863e3ff, type: 3}
    - {fileID: 21300000, guid: 30df52e686f35794c99c0e95d2240d34, type: 3}
  m_AnimationClipSettings:
    serializedVersion: 2
    m_AdditiveReferencePoseClip: {fileID: 0}
    m_AdditiveReferencePoseTime: 0
    m_StartTime: 0
    m_StopTime: 2.5833333
    m_OrientationOffsetY: 0
    m_Level: 0
    m_CycleOffset: 0
    m_HasAdditiveReferencePose: 0
    m_LoopTime: 1
    m_LoopBlend: 0
    m_LoopBlendOrientation: 0
    m_LoopBlendPositionY: 0
    m_LoopBlendPositionXZ: 0
    m_KeepOriginalOrientation: 0
    m_KeepOriginalPositionY: 1
    m_KeepOriginalPositionXZ: 0
    m_HeightFromFeet: 0
    m_Mirror: 0
  m_EditorCurves: []
  m_EulerEditorCurves: []
  m_HasGenericRootTransform: 0
  m_HasMotionFloatCurves: 0
  m_Events: []
